^D:\C++ COURSE PROJECT\C++ GAME\C++ GAME\DEBUG\C++ GAME.OBJ|D:\C++ COURSE PROJECT\C++ GAME\C++ GAME\DEBUG\ENTITY.OBJ|D:\C++ COURSE PROJECT\C++ GAME\C++ GAME\DEBUG\LEVELMAP.OBJ|D:\C++ COURSE PROJECT\C++ GAME\C++ GAME\DEBUG\MAINMAP.OBJ|D:\C++ COURSE PROJECT\C++ GAME\C++ GAME\DEBUG\MAPCONTROLLER.OBJ|D:\C++ COURSE PROJECT\C++ GAME\C++ GAME\DEBUG\PARTICLE.OBJ
/OUT:"D:\C++ COURSE PROJECT\C++ GAME\DEBUG\C++ GAME.EXE" /INCREMENTAL /NOLOGO KERNEL32.LIB USER32.LIB GDI32.LIB WINSPOOL.LIB COMDLG32.LIB ADVAPI32.LIB SHELL32.LIB OLE32.LIB OLEAUT32.LIB UUID.LIB ODBC32.LIB ODBCCP32.LIB /MANIFEST /MANIFESTUAC:"level='asInvoker' uiAccess='false'" /manifest:embed /DEBUG:FASTLINK /PDB:"D:\C++ COURSE PROJECT\C++ GAME\DEBUG\C++ GAME.PDB" /SUBSYSTEM:CONSOLE /TLBID:1 /DYNAMICBASE /NXCOMPAT /IMPLIB:"D:\C++ COURSE PROJECT\C++ GAME\DEBUG\C++ GAME.LIB" /MACHINE:X86 "DEBUG\C++ GAME.OBJ"
DEBUG\ENTITY.OBJ
DEBUG\LEVELMAP.OBJ
DEBUG\MAINMAP.OBJ
DEBUG\MAPCONTROLLER.OBJ
DEBUG\PARTICLE.OBJ
